<svg xmlns="http://www.w3.org/2000/svg" width="13" height="9" viewBox="0 0 14.492 9.657">
    <path id="Icon_feather-chevron-up" data-name="Icon feather-chevron-up" d="M20.68,20.751,14.84,13.5,9,20.751" transform="translate(22.086 22.157) rotate(180)" fill="none" stroke="#f66b64" stroke-linecap="round" stroke-linejoin="round" stroke-width="2"></path>
</svg>
