<svg xmlns="http://www.w3.org/2000/svg" width="146.843" height="145.777" viewBox="0 0 146.843 145.777">
  <g id="Group_1743" data-name="Group 1743" transform="translate(0 -0.455)">
    <circle id="Ellipse_96" data-name="Ellipse 96" cx="72.279" cy="72.279" r="72.279" transform="translate(1.142 0.455)" fill="#54e981"/>
    <path id="Path_8619" data-name="Path 8619" d="M73.422,87.186A73.574,73.574,0,0,1,0,15.6v1.836a73.422,73.422,0,0,0,146.843,0V15.6A73.264,73.264,0,0,1,73.422,87.186Z" transform="translate(0 55.375)" fill="#5b6ba1"/>
    <path id="Path_8620" data-name="Path 8620" d="M86.559,13.271l-2.294-2.294A3.966,3.966,0,0,0,81.511,9.6h0a3.271,3.271,0,0,0-2.753,1.377L38.835,50.9,17.267,29.791c-1.377-1.377-4.13-1.377-5.966,0L9.007,32.085a4.187,4.187,0,0,0,0,5.507L34.246,62.831a6.834,6.834,0,0,0,4.13,1.836,4.982,4.982,0,0,0,4.13-1.836L86.559,18.778a3.966,3.966,0,0,0,1.377-2.753A3.966,3.966,0,0,0,86.559,13.271Z" transform="translate(28.621 33.842)" fill="#fff"/>
  </g>
</svg>
