<svg id="Group_1533" data-name="Group 1533" xmlns="http://www.w3.org/2000/svg" width="42" height="42" viewBox="0 0 42 42">
  <path id="Path_7758" data-name="Path 7758" d="M11.35,12.139l-1.265,5.073c1.563.388,6.38,1.935,7.093-.927C17.92,13.3,12.913,12.529,11.35,12.139Z" transform="translate(7.564 9.104)" fill="#ff9800"/>
  <path id="Path_7759" data-name="Path 7759" d="M21,0A21,21,0,1,0,42,21,21,21,0,0,0,21,0Zm9.005,18.009,0,0A3.677,3.677,0,0,1,27.058,21.4c2.067,1.074,3.12,2.726,2.117,5.588-1.242,3.554-4.2,3.855-8.127,3.111l-.954,3.82-2.3-.574.941-3.769-.609-.131a12.1,12.1,0,0,1-1.228-.345l-.945,3.789-2.3-.574.954-3.827c-.539-.14-1.083-.285-1.641-.425l-3-.747L11.1,24.673s1.7.451,1.675.416a.839.839,0,0,0,1.057-.548L15.342,18.5c.086.019.166.04.243.059a1.539,1.539,0,0,0-.24-.077l1.074-4.312a1.224,1.224,0,0,0-1.073-1.344c.037-.023-1.673-.415-1.673-.415l.612-2.46,3.178.793,0,.012c.479.117.969.231,1.472.345l.945-3.785,2.3.574-.924,3.71c.618.142,1.241.282,1.846.434l.919-3.685,2.3.576-.943,3.785C28.3,13.713,30.422,15.214,30.005,18.009Z" fill="#ff9800"/>
  <path id="Path_7760" data-name="Path 7760" d="M12.285,8.184l-1.146,4.6c1.3.325,5.311,1.647,5.96-.955v0C17.775,9.111,13.585,8.506,12.285,8.184Z" transform="translate(8.354 6.138)" fill="#ff9800"/>
</svg>
