<svg xmlns="http://www.w3.org/2000/svg" width="26.509" height="5.764" viewBox="0 0 26.509 5.764">
  <g id="Icon_feather-more-horizontal" data-name="Icon feather-more-horizontal" transform="translate(1.5 1.5)">
    <path id="Path_8583" data-name="Path 8583" d="M19.439,17.882A1.472,1.472,0,1,1,17.969,16.5,1.428,1.428,0,0,1,19.439,17.882Z" transform="translate(-6.215 -16.5)" fill="none" stroke="#000" stroke-linecap="round" stroke-linejoin="round" stroke-width="3"/>
    <path id="Path_8584" data-name="Path 8584" d="M29.939,17.882A1.472,1.472,0,1,1,28.469,16.5,1.428,1.428,0,0,1,29.939,17.882Z" transform="translate(-6.43 -16.5)" fill="none" stroke="#000" stroke-linecap="round" stroke-linejoin="round" stroke-width="3"/>
    <path id="Path_8585" data-name="Path 8585" d="M8.939,17.882a1.428,1.428,0,0,1-1.469,1.382,1.385,1.385,0,1,1,0-2.764A1.428,1.428,0,0,1,8.939,17.882Z" transform="translate(-6 -16.5)" fill="none" stroke="#000" stroke-linecap="round" stroke-linejoin="round" stroke-width="3"/>
  </g>
</svg>
